[
    {
        "object_id": "1",
        "term_taxonomy_id": "1",
        "term_order": "0"
    },
    {
        "object_id": "4",
        "term_taxonomy_id": "2",
        "term_order": "0"
    },
    {
        "object_id": "29",
        "term_taxonomy_id": "2",
        "term_order": "0"
    },
    {
        "object_id": "31",
        "term_taxonomy_id": "2",
        "term_order": "0"
    },
    {
        "object_id": "31",
        "term_taxonomy_id": "34",
        "term_order": "0"
    },
    {
        "object_id": "33",
        "term_taxonomy_id": "2",
        "term_order": "0"
    },
    {
        "object_id": "33",
        "term_taxonomy_id": "4",
        "term_order": "0"
    },
    {
        "object_id": "33",
        "term_taxonomy_id": "5",
        "term_order": "0"
    },
    {
        "object_id": "35",
        "term_taxonomy_id": "2",
        "term_order": "0"
    },
    {
        "object_id": "35",
        "term_taxonomy_id": "3",
        "term_order": "0"
    },
    {
        "object_id": "35",
        "term_taxonomy_id": "6",
        "term_order": "0"
    },
    {
        "object_id": "35",
        "term_taxonomy_id": "7",
        "term_order": "0"
    },
    {
        "object_id": "35",
        "term_taxonomy_id": "35",
        "term_order": "0"
    },
    {
        "object_id": "82",
        "term_taxonomy_id": "10",
        "term_order": "0"
    },
    {
        "object_id": "87",
        "term_taxonomy_id": "11",
        "term_order": "0"
    },
    {
        "object_id": "88",
        "term_taxonomy_id": "16",
        "term_order": "0"
    },
    {
        "object_id": "89",
        "term_taxonomy_id": "11",
        "term_order": "0"
    },
    {
        "object_id": "451",
        "term_taxonomy_id": "2",
        "term_order": "0"
    },
    {
        "object_id": "451",
        "term_taxonomy_id": "3",
        "term_order": "0"
    },
    {
        "object_id": "451",
        "term_taxonomy_id": "7",
        "term_order": "0"
    },
    {
        "object_id": "683",
        "term_taxonomy_id": "10",
        "term_order": "0"
    },
    {
        "object_id": "683",
        "term_taxonomy_id": "12",
        "term_order": "0"
    },
    {
        "object_id": "684",
        "term_taxonomy_id": "16",
        "term_order": "0"
    },
    {
        "object_id": "685",
        "term_taxonomy_id": "12",
        "term_order": "0"
    },
    {
        "object_id": "685",
        "term_taxonomy_id": "16",
        "term_order": "0"
    },
    {
        "object_id": "686",
        "term_taxonomy_id": "10",
        "term_order": "0"
    },
    {
        "object_id": "687",
        "term_taxonomy_id": "12",
        "term_order": "0"
    },
    {
        "object_id": "688",
        "term_taxonomy_id": "16",
        "term_order": "0"
    },
    {
        "object_id": "689",
        "term_taxonomy_id": "16",
        "term_order": "0"
    },
    {
        "object_id": "690",
        "term_taxonomy_id": "16",
        "term_order": "0"
    },
    {
        "object_id": "732",
        "term_taxonomy_id": "20",
        "term_order": "0"
    },
    {
        "object_id": "732",
        "term_taxonomy_id": "21",
        "term_order": "0"
    },
    {
        "object_id": "732",
        "term_taxonomy_id": "22",
        "term_order": "0"
    },
    {
        "object_id": "734",
        "term_taxonomy_id": "23",
        "term_order": "0"
    },
    {
        "object_id": "734",
        "term_taxonomy_id": "24",
        "term_order": "0"
    },
    {
        "object_id": "734",
        "term_taxonomy_id": "25",
        "term_order": "0"
    },
    {
        "object_id": "805",
        "term_taxonomy_id": "28",
        "term_order": "0"
    },
    {
        "object_id": "812",
        "term_taxonomy_id": "28",
        "term_order": "0"
    },
    {
        "object_id": "859",
        "term_taxonomy_id": "36",
        "term_order": "0"
    },
    {
        "object_id": "930",
        "term_taxonomy_id": "29",
        "term_order": "0"
    },
    {
        "object_id": "930",
        "term_taxonomy_id": "31",
        "term_order": "0"
    },
    {
        "object_id": "931",
        "term_taxonomy_id": "29",
        "term_order": "0"
    },
    {
        "object_id": "931",
        "term_taxonomy_id": "30",
        "term_order": "0"
    },
    {
        "object_id": "931",
        "term_taxonomy_id": "31",
        "term_order": "0"
    },
    {
        "object_id": "932",
        "term_taxonomy_id": "29",
        "term_order": "0"
    },
    {
        "object_id": "932",
        "term_taxonomy_id": "31",
        "term_order": "0"
    },
    {
        "object_id": "1076",
        "term_taxonomy_id": "37",
        "term_order": "0"
    },
    {
        "object_id": "1078",
        "term_taxonomy_id": "37",
        "term_order": "0"
    },
    {
        "object_id": "1287",
        "term_taxonomy_id": "37",
        "term_order": "0"
    },
    {
        "object_id": "1289",
        "term_taxonomy_id": "38",
        "term_order": "0"
    },
    {
        "object_id": "1292",
        "term_taxonomy_id": "38",
        "term_order": "0"
    },
    {
        "object_id": "1372",
        "term_taxonomy_id": "13",
        "term_order": "0"
    },
    {
        "object_id": "1372",
        "term_taxonomy_id": "14",
        "term_order": "0"
    },
    {
        "object_id": "1373",
        "term_taxonomy_id": "9",
        "term_order": "0"
    },
    {
        "object_id": "1373",
        "term_taxonomy_id": "13",
        "term_order": "0"
    },
    {
        "object_id": "1374",
        "term_taxonomy_id": "8",
        "term_order": "0"
    },
    {
        "object_id": "1374",
        "term_taxonomy_id": "9",
        "term_order": "0"
    },
    {
        "object_id": "1745",
        "term_taxonomy_id": "17",
        "term_order": "0"
    },
    {
        "object_id": "1746",
        "term_taxonomy_id": "17",
        "term_order": "0"
    },
    {
        "object_id": "1747",
        "term_taxonomy_id": "17",
        "term_order": "0"
    },
    {
        "object_id": "1748",
        "term_taxonomy_id": "17",
        "term_order": "0"
    },
    {
        "object_id": "1749",
        "term_taxonomy_id": "18",
        "term_order": "0"
    },
    {
        "object_id": "1750",
        "term_taxonomy_id": "18",
        "term_order": "0"
    },
    {
        "object_id": "1751",
        "term_taxonomy_id": "17",
        "term_order": "0"
    },
    {
        "object_id": "1752",
        "term_taxonomy_id": "8",
        "term_order": "0"
    },
    {
        "object_id": "1752",
        "term_taxonomy_id": "9",
        "term_order": "0"
    },
    {
        "object_id": "1753",
        "term_taxonomy_id": "13",
        "term_order": "0"
    },
    {
        "object_id": "1753",
        "term_taxonomy_id": "14",
        "term_order": "0"
    },
    {
        "object_id": "1754",
        "term_taxonomy_id": "17",
        "term_order": "0"
    },
    {
        "object_id": "1755",
        "term_taxonomy_id": "8",
        "term_order": "0"
    },
    {
        "object_id": "1755",
        "term_taxonomy_id": "15",
        "term_order": "0"
    },
    {
        "object_id": "1756",
        "term_taxonomy_id": "14",
        "term_order": "0"
    },
    {
        "object_id": "1756",
        "term_taxonomy_id": "15",
        "term_order": "0"
    },
    {
        "object_id": "1757",
        "term_taxonomy_id": "17",
        "term_order": "0"
    },
    {
        "object_id": "1758",
        "term_taxonomy_id": "17",
        "term_order": "0"
    },
    {
        "object_id": "1760",
        "term_taxonomy_id": "18",
        "term_order": "0"
    },
    {
        "object_id": "1761",
        "term_taxonomy_id": "18",
        "term_order": "0"
    },
    {
        "object_id": "1764",
        "term_taxonomy_id": "18",
        "term_order": "0"
    },
    {
        "object_id": "1765",
        "term_taxonomy_id": "18",
        "term_order": "0"
    },
    {
        "object_id": "1766",
        "term_taxonomy_id": "18",
        "term_order": "0"
    },
    {
        "object_id": "1767",
        "term_taxonomy_id": "18",
        "term_order": "0"
    },
    {
        "object_id": "1768",
        "term_taxonomy_id": "18",
        "term_order": "0"
    },
    {
        "object_id": "1769",
        "term_taxonomy_id": "18",
        "term_order": "0"
    },
    {
        "object_id": "1770",
        "term_taxonomy_id": "18",
        "term_order": "0"
    },
    {
        "object_id": "1771",
        "term_taxonomy_id": "18",
        "term_order": "0"
    },
    {
        "object_id": "1772",
        "term_taxonomy_id": "18",
        "term_order": "0"
    },
    {
        "object_id": "1773",
        "term_taxonomy_id": "18",
        "term_order": "0"
    },
    {
        "object_id": "1774",
        "term_taxonomy_id": "18",
        "term_order": "0"
    },
    {
        "object_id": "1775",
        "term_taxonomy_id": "18",
        "term_order": "0"
    },
    {
        "object_id": "1776",
        "term_taxonomy_id": "18",
        "term_order": "0"
    },
    {
        "object_id": "1777",
        "term_taxonomy_id": "18",
        "term_order": "0"
    },
    {
        "object_id": "1778",
        "term_taxonomy_id": "18",
        "term_order": "0"
    },
    {
        "object_id": "1779",
        "term_taxonomy_id": "18",
        "term_order": "0"
    },
    {
        "object_id": "1780",
        "term_taxonomy_id": "18",
        "term_order": "0"
    },
    {
        "object_id": "1781",
        "term_taxonomy_id": "18",
        "term_order": "0"
    },
    {
        "object_id": "1782",
        "term_taxonomy_id": "18",
        "term_order": "0"
    },
    {
        "object_id": "1783",
        "term_taxonomy_id": "18",
        "term_order": "0"
    },
    {
        "object_id": "1784",
        "term_taxonomy_id": "18",
        "term_order": "0"
    },
    {
        "object_id": "1785",
        "term_taxonomy_id": "18",
        "term_order": "0"
    },
    {
        "object_id": "1786",
        "term_taxonomy_id": "18",
        "term_order": "0"
    },
    {
        "object_id": "1787",
        "term_taxonomy_id": "18",
        "term_order": "0"
    },
    {
        "object_id": "1788",
        "term_taxonomy_id": "18",
        "term_order": "0"
    },
    {
        "object_id": "1789",
        "term_taxonomy_id": "18",
        "term_order": "0"
    },
    {
        "object_id": "1790",
        "term_taxonomy_id": "18",
        "term_order": "0"
    },
    {
        "object_id": "1791",
        "term_taxonomy_id": "18",
        "term_order": "0"
    },
    {
        "object_id": "1792",
        "term_taxonomy_id": "18",
        "term_order": "0"
    },
    {
        "object_id": "1793",
        "term_taxonomy_id": "18",
        "term_order": "0"
    },
    {
        "object_id": "1794",
        "term_taxonomy_id": "18",
        "term_order": "0"
    },
    {
        "object_id": "1795",
        "term_taxonomy_id": "18",
        "term_order": "0"
    },
    {
        "object_id": "1796",
        "term_taxonomy_id": "18",
        "term_order": "0"
    },
    {
        "object_id": "1797",
        "term_taxonomy_id": "18",
        "term_order": "0"
    },
    {
        "object_id": "1798",
        "term_taxonomy_id": "18",
        "term_order": "0"
    },
    {
        "object_id": "1799",
        "term_taxonomy_id": "18",
        "term_order": "0"
    },
    {
        "object_id": "1800",
        "term_taxonomy_id": "18",
        "term_order": "0"
    },
    {
        "object_id": "1801",
        "term_taxonomy_id": "18",
        "term_order": "0"
    },
    {
        "object_id": "1802",
        "term_taxonomy_id": "18",
        "term_order": "0"
    },
    {
        "object_id": "1803",
        "term_taxonomy_id": "18",
        "term_order": "0"
    },
    {
        "object_id": "1804",
        "term_taxonomy_id": "18",
        "term_order": "0"
    },
    {
        "object_id": "1805",
        "term_taxonomy_id": "18",
        "term_order": "0"
    },
    {
        "object_id": "1806",
        "term_taxonomy_id": "18",
        "term_order": "0"
    },
    {
        "object_id": "1807",
        "term_taxonomy_id": "18",
        "term_order": "0"
    },
    {
        "object_id": "1808",
        "term_taxonomy_id": "18",
        "term_order": "0"
    },
    {
        "object_id": "1809",
        "term_taxonomy_id": "18",
        "term_order": "0"
    },
    {
        "object_id": "1812",
        "term_taxonomy_id": "18",
        "term_order": "0"
    },
    {
        "object_id": "1813",
        "term_taxonomy_id": "18",
        "term_order": "0"
    },
    {
        "object_id": "1814",
        "term_taxonomy_id": "18",
        "term_order": "0"
    },
    {
        "object_id": "1815",
        "term_taxonomy_id": "18",
        "term_order": "0"
    },
    {
        "object_id": "1816",
        "term_taxonomy_id": "18",
        "term_order": "0"
    },
    {
        "object_id": "1817",
        "term_taxonomy_id": "18",
        "term_order": "0"
    },
    {
        "object_id": "1819",
        "term_taxonomy_id": "32",
        "term_order": "0"
    },
    {
        "object_id": "1820",
        "term_taxonomy_id": "32",
        "term_order": "0"
    },
    {
        "object_id": "1821",
        "term_taxonomy_id": "32",
        "term_order": "0"
    },
    {
        "object_id": "1822",
        "term_taxonomy_id": "32",
        "term_order": "0"
    },
    {
        "object_id": "1823",
        "term_taxonomy_id": "32",
        "term_order": "0"
    },
    {
        "object_id": "1824",
        "term_taxonomy_id": "32",
        "term_order": "0"
    },
    {
        "object_id": "1826",
        "term_taxonomy_id": "19",
        "term_order": "0"
    },
    {
        "object_id": "1826",
        "term_taxonomy_id": "26",
        "term_order": "0"
    },
    {
        "object_id": "1826",
        "term_taxonomy_id": "27",
        "term_order": "0"
    },
    {
        "object_id": "1827",
        "term_taxonomy_id": "32",
        "term_order": "0"
    },
    {
        "object_id": "1828",
        "term_taxonomy_id": "32",
        "term_order": "0"
    },
    {
        "object_id": "1829",
        "term_taxonomy_id": "32",
        "term_order": "0"
    },
    {
        "object_id": "1830",
        "term_taxonomy_id": "32",
        "term_order": "0"
    },
    {
        "object_id": "1831",
        "term_taxonomy_id": "32",
        "term_order": "0"
    },
    {
        "object_id": "1832",
        "term_taxonomy_id": "32",
        "term_order": "0"
    },
    {
        "object_id": "1833",
        "term_taxonomy_id": "32",
        "term_order": "0"
    },
    {
        "object_id": "1834",
        "term_taxonomy_id": "32",
        "term_order": "0"
    },
    {
        "object_id": "1835",
        "term_taxonomy_id": "32",
        "term_order": "0"
    },
    {
        "object_id": "1836",
        "term_taxonomy_id": "32",
        "term_order": "0"
    },
    {
        "object_id": "1837",
        "term_taxonomy_id": "32",
        "term_order": "0"
    },
    {
        "object_id": "1838",
        "term_taxonomy_id": "32",
        "term_order": "0"
    },
    {
        "object_id": "1839",
        "term_taxonomy_id": "32",
        "term_order": "0"
    },
    {
        "object_id": "1840",
        "term_taxonomy_id": "17",
        "term_order": "0"
    },
    {
        "object_id": "1841",
        "term_taxonomy_id": "17",
        "term_order": "0"
    },
    {
        "object_id": "1842",
        "term_taxonomy_id": "17",
        "term_order": "0"
    },
    {
        "object_id": "1843",
        "term_taxonomy_id": "17",
        "term_order": "0"
    },
    {
        "object_id": "1844",
        "term_taxonomy_id": "17",
        "term_order": "0"
    },
    {
        "object_id": "1845",
        "term_taxonomy_id": "17",
        "term_order": "0"
    },
    {
        "object_id": "1846",
        "term_taxonomy_id": "17",
        "term_order": "0"
    },
    {
        "object_id": "1847",
        "term_taxonomy_id": "17",
        "term_order": "0"
    },
    {
        "object_id": "1848",
        "term_taxonomy_id": "17",
        "term_order": "0"
    },
    {
        "object_id": "1849",
        "term_taxonomy_id": "17",
        "term_order": "0"
    },
    {
        "object_id": "1850",
        "term_taxonomy_id": "18",
        "term_order": "0"
    },
    {
        "object_id": "1851",
        "term_taxonomy_id": "18",
        "term_order": "0"
    },
    {
        "object_id": "1852",
        "term_taxonomy_id": "18",
        "term_order": "0"
    },
    {
        "object_id": "1853",
        "term_taxonomy_id": "18",
        "term_order": "0"
    },
    {
        "object_id": "1854",
        "term_taxonomy_id": "18",
        "term_order": "0"
    },
    {
        "object_id": "1855",
        "term_taxonomy_id": "18",
        "term_order": "0"
    },
    {
        "object_id": "1856",
        "term_taxonomy_id": "18",
        "term_order": "0"
    },
    {
        "object_id": "1857",
        "term_taxonomy_id": "18",
        "term_order": "0"
    },
    {
        "object_id": "1858",
        "term_taxonomy_id": "18",
        "term_order": "0"
    },
    {
        "object_id": "1859",
        "term_taxonomy_id": "18",
        "term_order": "0"
    },
    {
        "object_id": "1860",
        "term_taxonomy_id": "18",
        "term_order": "0"
    },
    {
        "object_id": "1861",
        "term_taxonomy_id": "18",
        "term_order": "0"
    },
    {
        "object_id": "1862",
        "term_taxonomy_id": "18",
        "term_order": "0"
    },
    {
        "object_id": "1863",
        "term_taxonomy_id": "18",
        "term_order": "0"
    },
    {
        "object_id": "1864",
        "term_taxonomy_id": "18",
        "term_order": "0"
    },
    {
        "object_id": "1865",
        "term_taxonomy_id": "18",
        "term_order": "0"
    },
    {
        "object_id": "1866",
        "term_taxonomy_id": "18",
        "term_order": "0"
    },
    {
        "object_id": "1867",
        "term_taxonomy_id": "18",
        "term_order": "0"
    },
    {
        "object_id": "1868",
        "term_taxonomy_id": "18",
        "term_order": "0"
    },
    {
        "object_id": "1869",
        "term_taxonomy_id": "18",
        "term_order": "0"
    },
    {
        "object_id": "1870",
        "term_taxonomy_id": "18",
        "term_order": "0"
    },
    {
        "object_id": "1871",
        "term_taxonomy_id": "18",
        "term_order": "0"
    },
    {
        "object_id": "1872",
        "term_taxonomy_id": "18",
        "term_order": "0"
    },
    {
        "object_id": "1873",
        "term_taxonomy_id": "18",
        "term_order": "0"
    },
    {
        "object_id": "1874",
        "term_taxonomy_id": "18",
        "term_order": "0"
    },
    {
        "object_id": "1875",
        "term_taxonomy_id": "18",
        "term_order": "0"
    },
    {
        "object_id": "1876",
        "term_taxonomy_id": "18",
        "term_order": "0"
    },
    {
        "object_id": "1877",
        "term_taxonomy_id": "18",
        "term_order": "0"
    },
    {
        "object_id": "1887",
        "term_taxonomy_id": "2",
        "term_order": "0"
    },
    {
        "object_id": "1887",
        "term_taxonomy_id": "33",
        "term_order": "0"
    }
]